{
  "POST": {
    "description": "Create an client",
    "parameters": {
      "pass_code": {
        "type": "string",
        "description": "pass code received from financial planner or advisor",
        "required": true
      },
      "first_name": {
        "type": "string",
        "description": "first name of client",
        "required": true
      },
      "last_name": {
        "type": "string",
        "description": "last name of client",
        "required": true
      },
      "email": {
        "type": "string",
        "description": "The email address of the client",
        "required": true
      },
      "password": {
        "type": "string",
        "description": "Chosen password",
        "required": true
      }
    },
    "example": {
      "pass_code" : "sJ42",
      "first_name" : "Elon",
      "last_name" : "Musk",
      "email" : "elon.musk@tesla.com",
      "password" : "hyperloop"
    }
  }
}